| estimator   |    ExplVar |     MAE |     MSE |   MedAE |         R2 | tag      |
|-------------+------------+---------+---------+---------+------------+----------|
| HLNet       | -0.1952    | 1.60195 | 4.03939 | 1.35216 | -0.231367  | cr = 0.5 |
| HLNet       | -0.348487  | 1.64656 | 4.64055 | 1.30956 | -0.414627  | cr = 0.6 |
| HLNet       | -0.212975  | 1.63924 | 4.29766 | 1.36008 | -0.310098  | cr = 0.7 |
| HLNet       | -0.0149597 | 1.50148 | 3.55882 | 1.27168 | -0.0848714 | cr = 0.8 |
| HLNet       | -0.0305077 | 1.50633 | 3.60672 | 1.29401 | -0.0994734 | cr = 0.9 |